{
  "project_info": {
    "project_number": "674571644511",
    "firebase_url": "https://lab3-a180d.firebaseio.com",
    "project_id": "lab3-a180d",
    "storage_bucket": "lab3-a180d.appspot.com"
  },
  "client": [
    {
      "client_info": {
        "mobilesdk_app_id": "1:674571644511:android:79fe6ae0561209d4",
        "android_client_info": {
          "package_name": "com.example.cse438.blackjack"
        }
      },
      "oauth_client": [
        {
          "client_id": "674571644511-ub4v5540vmi2buksgoveus6vb181ltkb.apps.googleusercontent.com",
          "client_type": 1,
          "android_info": {
            "package_name": "com.example.cse438.blackjack",
            "certificate_hash": "dc821587d8e504b5121b2cd81511757a18e2e451"
          }
        },
        {
          "client_id": "674571644511-8l8j9b5pb0lhvc3b8a0h6k4voarrhg3l.apps.googleusercontent.com",
          "client_type": 3
        }
      ],
      "api_key": [
        {
          "current_key": "AIzaSyC7q7_3NnwReVTtf_xf4rY8z9x7LJ2n9C4"
        }
      ],
      "services": {
        "analytics_service": {
          "status": 1
        },
        "appinvite_service": {
          "status": 2,
          "other_platform_oauth_client": [
            {
              "client_id": "674571644511-8l8j9b5pb0lhvc3b8a0h6k4voarrhg3l.apps.googleusercontent.com",
              "client_type": 3
            }
          ]
        },
        "ads_service": {
          "status": 2
        }
      }
    }
  ],
  "configuration_version": "1"
}